Justin Abdelkader,2,0,0,10109
Chris Chelios*,69,366,1403,1708
Dan Cleary,63,1821,607,3556
Pavel Datsyuk,82,2441,1057,1006
Aaron Downey,56,44,88,1160
Dallas Drake,65,211,882,3247
Kris Draper,65,624,918,3306
Matt Ellis,35,142,47,356
Jonathan Ericsson,8,305,915,2745
Valtteri Filppula,78,1098,793,1067
Johan Franzen,72,1315,830,3080
Mark Hartigan,23,100,0,629
Darren Helm,7,0,0,282
Tomas Holmstrom,59,1548,270,2245
Jiri Hudler,81,2160,411,1285
Tomas Kopecky,77,78,111,730
Niklas Kronwall,65,999,2257,2657
Brett Lebda,78,566,1537,1860
Nicklas Lidstrom*,76,1546,1546,507
Andreas Lilja,79,583,5545,6470
Kirk Maltby,61,562,956,5175
Darren McCarty,3,227,227,910
Derek Meech,32,317,1905,2329
Kyle Quincey,6,0,2776,4759
Brian Rafalski,73,1596,2032,1103
Mattias Ritola,2,480,0,0
Mikael Samuelsson,73,1894,994,3505
Garrett Stafford,2,0,0,404
Brad Stuart,9,390,2537,5855
Henrik Zetterberg,75,2670,464,899
